<?xml version="1.0" encoding="utf-8"?>
<!-- Generator: Adobe Illustrator 23.0.1, SVG Export Plug-In . SVG Version: 6.00 Build 0)  -->
<svg version="1.1" id="Layer_1" xmlns="http://www.w3.org/2000/svg" xmlns:xlink="http://www.w3.org/1999/xlink" x="0px" y="0px"
	 viewBox="0 0 512 512" style="enable-background:new 0 0 512 512;" xml:space="preserve">
<style type="text/css">
	.st0{fill:url(#SVGID_1_);}
	.st1{fill:#FFFFFF;}
</style>
<title>Ripple_logo_RGB</title>
<linearGradient id="SVGID_1_" gradientUnits="userSpaceOnUse" x1="75.9806" y1="438.0193" x2="438.0194" y2="75.9807">
	<stop  offset="0" style="stop-color:#00AAE4"/>
	<stop  offset="1" style="stop-color:#006097"/>
</linearGradient>
<circle class="st0" cx="257" cy="257" r="256"/>
<path class="st1" d="M355.7,298.3c-12.3-7.1-26.1-9.1-39.8-9.6c-11.5-0.4-28.6-7.8-28.6-28.6c0-15.6,12.6-28.1,28.6-28.6
	c13.7-0.5,27.5-2.5,39.8-9.6c34.7-20,46.5-64.3,26.5-99s-64.3-46.5-99-26.5C260.8,109.1,247,133.1,247,159c0,14,5,27,11.4,39
	c5.4,10.1,8.1,28.8-10.3,39.4c-13.7,7.9-30.7,2.9-39.3-10.7c-7.2-11.5-15.9-22.3-28.1-29.4c-34.7-20-79-8.1-99,26.5s-8.1,79,26.5,99
	c22.4,12.9,50.1,12.9,72.5,0c12.2-7,20.9-17.8,28.1-29.3c5.9-9.5,20.7-21.5,39.3-10.8c13.7,7.9,17.9,25.2,10.3,39.4
	C252,334.1,247,347,247,361c0,40,32.5,72.5,72.5,72.5S392,401.1,392,361C392,335.2,378.2,311.2,355.7,298.3z"/>
</svg>
